[
  {
    "firstName": "John",

    "age": 27
  },

  {
    "firstName": "James",

    "age": 32
  },

  {
    "firstName": "Robert",

    "age": 45
  },

  {
    "firstName": "Rohan",
    "age": 30
  },
  {
    "firstName": "swappy",
    "age": 25
  },
  {
    "firstName": "Karan",
    "age": 36
  },
  {
    "firstName": "Sohan",
    "age": 45
  },
  {
    "firstName": "Prem",
    "age": 45
  },
  {
    "firstName": "Jasraj",
    "age": 26
  }
]
